{
	"info": {
		"_postman_id": "99658f30-2298-42f4-8fb9-3b4111a79747",
		"name": "Kada Task",
		"schema": "https://schema.getpostman.com/json/collection/v2.1.0/collection.json"
	},
	"item": [
		{
			"name": "Auth",
			"item": [
				{
					"name": "Login",
					"request": {
						"method": "POST",
						"header": [],
						"body": {
							"mode": "raw",
							"raw": "{\n    \"email\": \"test2@gmail.com\",\n    \"password\": \"123456\"\n}",
							"options": {
								"raw": {
									"language": "json"
								}
							}
						},
						"url": {
							"raw": "https://felix-bm-kada-task.louisaldorio.site/auth/login",
							"protocol": "https",
							"host": [
								"felix-bm-kada-task",
								"louisaldorio",
								"site"
							],
							"path": [
								"auth",
								"login"
							]
						}
					},
					"response": []
				},
				{
					"name": "Logout",
					"request": {
						"auth": {
							"type": "bearer",
							"bearer": [
								{
									"key": "token",
									"value": "eyJ0eXAiOiJKV1QiLCJhbGciOiJSUzI1NiJ9.eyJhdWQiOiIxIiwianRpIjoiMjFjM2U5Y2JhNDliMTViMGZiZWZhODVmMzAwNGIxNzcwMjViMDRmZmZmMzUzODUwZDE4NDNkOTc2N2RhZGVhZTdjMTE5YmEzNWJiMDU1Y2UiLCJpYXQiOjE2NjAwMjA1OTcuODU1MDA4LCJuYmYiOjE2NjAwMjA1OTcuODU1MDExLCJleHAiOjE2OTE1NTY1OTcuODUyODUyLCJzdWIiOiIyIiwic2NvcGVzIjpbXX0.fPp2vXpZIdQvilTVP1it6Q0694bfdCB1oyqEYlkA0AeF3_ZnFjIK3ObSupFpUfFp4yETnyPGrcsHEBUQAi7xqKHIoEQ4Q6hB60BHfKFrWHhtkM1ddOTghyzXreh4TuTuCdRxMJ_U11LmnZ1oMv4p9npZGvyrC3sF25L9SNDO6ytmFciOkyRjQRRGo-7ui8GOVR8vgmw1pEX2pb79MjEerS1GTg_9aBBuGusLAVZR35lawLudjGgYuzU8iWR4h_-ITgCcgUFAr7Jj4GEEJRyt9JO2Atz3Yfo8yl5sGA239yoZjkg_by8PFJPGM3q38kkJJSQY9SJbeIMjJzaiM8O_AxpSb5rdH-AbKwWsq43yrdqR8uw8JRkw2Fum7jCEZZTw0cHnySSr9bsGg1tEAi8WdcLvrKUUCJSEEck4kQR6KJqArf0QbmebXL1hP0uHahmv6UnJX6XP7AUp-Zg7ztBAlA-YGg0zxrKK3v7FWTFlikRI5hn10VThQKSOsI2UXiEaIw2ngXG6f644T3mguHvLielRmJLDMCIsI0mZhZHo60f_Zi9mriduR-Y1XoEQoswQ5hiRTifY0Ca3-49HRzdU_8hLpdj6O4Doqh_GdaNfbsPG6PHzleea6HuuGLPBAApt2cJmgBm-AprGBrMJHH4Fe6KfJqZnoEz8U0F0pJpdHzw",
									"type": "string"
								}
							]
						},
						"method": "POST",
						"header": [],
						"url": {
							"raw": "https://felix-bm-kada-task.louisaldorio.site/auth/logout",
							"protocol": "https",
							"host": [
								"felix-bm-kada-task",
								"louisaldorio",
								"site"
							],
							"path": [
								"auth",
								"logout"
							]
						}
					},
					"response": []
				},
				{
					"name": "Register",
					"request": {
						"method": "POST",
						"header": [],
						"body": {
							"mode": "raw",
							"raw": "{\n    \"name\": \"Test 2\",\n    \"email\": \"test2@gmail.com\",\n    \"date_of_birth\": \"2000-07-17\",\n    \"password\": \"123456\",\n    \"password_confirmation\": \"123456\"\n}",
							"options": {
								"raw": {
									"language": "json"
								}
							}
						},
						"url": {
							"raw": "https://felix-bm-kada-task.louisaldorio.site/auth/register",
							"protocol": "https",
							"host": [
								"felix-bm-kada-task",
								"louisaldorio",
								"site"
							],
							"path": [
								"auth",
								"register"
							]
						}
					},
					"response": []
				}
			]
		},
		{
			"name": "Owner",
			"item": [
				{
					"name": "Get All",
					"request": {
						"auth": {
							"type": "bearer",
							"bearer": [
								{
									"key": "token",
									"value": "eyJ0eXAiOiJKV1QiLCJhbGciOiJSUzI1NiJ9.eyJhdWQiOiIxIiwianRpIjoiYzczYzM4NWM2OGMzMTFmYTMzMzk4YzFmMDIzOGRmZDhmMDZjZDBjODFiMzZkODYyNDk4MTRhMDM1OWI2MTRjNGI5MTNlMTY5OTQ5MjU0MTciLCJpYXQiOjE2NjAxMDQxOTguNzk3MDk4LCJuYmYiOjE2NjAxMDQxOTguNzk3MSwiZXhwIjoxNjkxNjQwMTk4Ljc4NTc4MSwic3ViIjoiMSIsInNjb3BlcyI6W119.oASe1tmTZv7b83-AOB22wO-Ph4q7lGTVuK3kCGwwP5r7FrsprHaicCfEp8YYMxKHVvhSKdV-uAJSCCgu-51nIjaIPrblzAQ7dNbI0FEz3lYb-VElus1nuX233yxTvKRGZ5LxKIVvw-iyzg0-tQg4i6r4c4NsdPQIY8XmZOEdtjF5lKUD7d9qmOtAdGhNWbcrzpKy_fAFEfkIwfM9oos7XqL8ReuDS2cSBn2R7LfSXSACQa8mGoYw6PV2TRCDpn_Rlnj8uMTsLf3w0vv1sdy2W4py627sBkIOAfCBbrcG463l82UBcwmx-zIViEM7Kxe3bCJ-4yM0vyGYR4SzBqOOSBp5B8SekxopikwEVLb527MxHVK-NQWHuIiBO8wUirzPa9BilgvX4mwng0j9PmrphJ7vZ-7KG_id6FA_dhumaGR6f0OI4E_XcXnPAmbtY34fYM_5-bVwgUWQgmQ26d9oem6tLxCdeOirzPnLKubGiqkELQ-2Q3qe5D6ldgO1hge4y5RXsZi1ghZCVgWmWialc34B6LJUY0kFW7as_B2x9y3KHZlJLFSUKxWp8Qi9LmB_sptzcBAzCI2DVQGV-M3WKZ_7ZRsfhPuT5sEF7xKfYRlzmxxqb7irrARP1FFjtRiOJNTlQoodw8-28IdqGCEDV1R6N9p97A7UX9npsIARx20",
									"type": "string"
								}
							]
						},
						"method": "GET",
						"header": [],
						"url": {
							"raw": "https://felix-bm-kada-task.louisaldorio.site/api/owners",
							"protocol": "https",
							"host": [
								"felix-bm-kada-task",
								"louisaldorio",
								"site"
							],
							"path": [
								"api",
								"owners"
							]
						}
					},
					"response": []
				},
				{
					"name": "Create",
					"request": {
						"auth": {
							"type": "bearer",
							"bearer": [
								{
									"key": "token",
									"value": "eyJ0eXAiOiJKV1QiLCJhbGciOiJSUzI1NiJ9.eyJhdWQiOiIxIiwianRpIjoiZDhkZGQ3NTY3ZjQ4Nzc5YjVkMTE5ZjE4MTc3YzdkMjBhYjg0YzdlNjg2YzA2ODhjNjI2NWJiZTQwYmFjMzI4ZWZkZmQ5NTljMDUwNWU5MWYiLCJpYXQiOjE2NjAwMzM1MDEuNDQ5ODIyLCJuYmYiOjE2NjAwMzM1MDEuNDQ5ODI0LCJleHAiOjE2OTE1Njk1MDEuNDQzMDY1LCJzdWIiOiIxIiwic2NvcGVzIjpbXX0.Q9uxE8Mm_N6pNYegWsGln4ZYyEEQ6WOGovze1-VKN4rsN_68-1-qp4_QgXh2JqAruAgw3o6IW72HYk7xoAnCFgn0Bo6gKpqH9mj7SwjF6boTZH6_lOaI88ttZPzgfQ3VZDvvNrvsGSIYXWxnwD52r_UXBDYt5jZfx7OyX9cArKY-Vd0VTLjIjCFnLmnvOQr1yls07grKnGd60LuQjUHRxJkxGU7605jPDdrxP69iWM1N50Kv4gC6xHekR04kBjGvqmA_afJ2b1Rbo427JX3Q-64AObvNTmN1H2GJcLrLmefSAzT8SVs9LjXpRDfyATDCsfP5mCBLa9BHJK2id2AK72D0_Cq0t_9v3-nZ4af5nynIW_xqndFZmDKCvQ2NChq8Qv21yrbqHUvcTY6SgCaZ3FKj7kP707YU0cyTcyMNw5sWEG_F7YCjjL6hCzktV7zNapvPuuOzvVB7Zx9lb1eAnDxzv0KMO7YkY3ITYRdgCuOwSVAmiE5K_fkZTEsCSsn_9d2zSCATGv0wx6pLEckzmelOtsH4x0QQUHqa8942_9XlAPDXAOZhfxe110-vYGpTcvpyxO2GTG4JiPpgZqeVki0MvjQsyFwqJ0DxN-qh7fkfxwVtX2glawuJuC2OMMpfgG2gQVQ96I4SfXNpDazwVVq07mHzwO-eXYN4ZavnrQk",
									"type": "string"
								}
							]
						},
						"method": "POST",
						"header": [],
						"body": {
							"mode": "raw",
							"raw": "{\n    \"name\": \"Lulu.id\"\n}",
							"options": {
								"raw": {
									"language": "json"
								}
							}
						},
						"url": {
							"raw": "https://felix-bm-kada-task.louisaldorio.site/api/owners",
							"protocol": "https",
							"host": [
								"felix-bm-kada-task",
								"louisaldorio",
								"site"
							],
							"path": [
								"api",
								"owners"
							]
						}
					},
					"response": []
				},
				{
					"name": "Update By ID",
					"request": {
						"auth": {
							"type": "bearer",
							"bearer": [
								{
									"key": "token",
									"value": "eyJ0eXAiOiJKV1QiLCJhbGciOiJSUzI1NiJ9.eyJhdWQiOiIxIiwianRpIjoiYzI4NDAwYzdiMTgyZWE4ZjM2YmE2ZTcxZjJjZmRkMjU5NzAzYTM3YzA5OWNmZjdhOWI4MDk5MWYyMWI3YjA3NDJhMTZlZTczNDVjNWY5YjgiLCJpYXQiOjE2NjAwMjY4NjYuNzQwMjA1LCJuYmYiOjE2NjAwMjY4NjYuNzQwMjA4LCJleHAiOjE2OTE1NjI4NjYuNjg1NDYsInN1YiI6IjEiLCJzY29wZXMiOltdfQ.ZusoDrOzB25W0XJ8ycFxxEt1rsTjAvKzXBpIin17fOhs6z2e-ebllsNOFmT7bcsCnaFIPnZ0kiXbe3PHgy4fMonIIWkaEIFCCgjcXdn8fzskMHuF_nktaHCLxS_z6VJkbGfqNOnHM4aszsvCvmcovXWezKY-uy-sRukivRDXS9jOvO9qCZfXabc1dpj4lyZSrWbrsJdgXawkMKE27GfHPaaEjLABWGWvum_-hVlKsAxkTpB-eAErGwG7b0M4tKUEqBSD6WAQmlwiCEYhIdH9ldtMbT3pjwNfqtgJrK-yuZwB6L3cBRm_7CqQQPSWJqd8dbeCTApoM083QguITtkDAxwC03IMluFFFF65emiF-XkeNofSnt1H2O0cG_cnP_Rt5tJs68nV-AaREUZXxlRtOoxJAwsGEiikxyFoEY5dIX8Ksvy1MMOAgT_z5BGu1BCXChJUHWhiRxcG9s5lzLCJVtOxMF-XbTTUiBjOQtyCgWo1IL1Cu1QLhMVAAWEbod2WocEFhRpcaLE7lRhdNkD0HXjxGj-sL1Ue_3VJi5psR9Ro7kj06xkWL5nkKJp5Hrk-p8KiWgyMKjko7dlzKr30DrTWvwbjF6Onr0ipldpT-IHSH7try2MVvanBwYqE_5eAkyGLoKxptYdRkQVbJVoHkYD6prAQZDy3iwNsm6dyGHs",
									"type": "string"
								}
							]
						},
						"method": "PUT",
						"header": [],
						"body": {
							"mode": "raw",
							"raw": "{\n    \"name\": \"Lulu id\"\n}",
							"options": {
								"raw": {
									"language": "json"
								}
							}
						},
						"url": {
							"raw": "https://felix-bm-kada-task.louisaldorio.site/api/owners/1",
							"protocol": "https",
							"host": [
								"felix-bm-kada-task",
								"louisaldorio",
								"site"
							],
							"path": [
								"api",
								"owners",
								"1"
							]
						}
					},
					"response": []
				},
				{
					"name": "Get By ID",
					"request": {
						"auth": {
							"type": "bearer",
							"bearer": [
								{
									"key": "token",
									"value": "eyJ0eXAiOiJKV1QiLCJhbGciOiJSUzI1NiJ9.eyJhdWQiOiIxIiwianRpIjoiYzI4NDAwYzdiMTgyZWE4ZjM2YmE2ZTcxZjJjZmRkMjU5NzAzYTM3YzA5OWNmZjdhOWI4MDk5MWYyMWI3YjA3NDJhMTZlZTczNDVjNWY5YjgiLCJpYXQiOjE2NjAwMjY4NjYuNzQwMjA1LCJuYmYiOjE2NjAwMjY4NjYuNzQwMjA4LCJleHAiOjE2OTE1NjI4NjYuNjg1NDYsInN1YiI6IjEiLCJzY29wZXMiOltdfQ.ZusoDrOzB25W0XJ8ycFxxEt1rsTjAvKzXBpIin17fOhs6z2e-ebllsNOFmT7bcsCnaFIPnZ0kiXbe3PHgy4fMonIIWkaEIFCCgjcXdn8fzskMHuF_nktaHCLxS_z6VJkbGfqNOnHM4aszsvCvmcovXWezKY-uy-sRukivRDXS9jOvO9qCZfXabc1dpj4lyZSrWbrsJdgXawkMKE27GfHPaaEjLABWGWvum_-hVlKsAxkTpB-eAErGwG7b0M4tKUEqBSD6WAQmlwiCEYhIdH9ldtMbT3pjwNfqtgJrK-yuZwB6L3cBRm_7CqQQPSWJqd8dbeCTApoM083QguITtkDAxwC03IMluFFFF65emiF-XkeNofSnt1H2O0cG_cnP_Rt5tJs68nV-AaREUZXxlRtOoxJAwsGEiikxyFoEY5dIX8Ksvy1MMOAgT_z5BGu1BCXChJUHWhiRxcG9s5lzLCJVtOxMF-XbTTUiBjOQtyCgWo1IL1Cu1QLhMVAAWEbod2WocEFhRpcaLE7lRhdNkD0HXjxGj-sL1Ue_3VJi5psR9Ro7kj06xkWL5nkKJp5Hrk-p8KiWgyMKjko7dlzKr30DrTWvwbjF6Onr0ipldpT-IHSH7try2MVvanBwYqE_5eAkyGLoKxptYdRkQVbJVoHkYD6prAQZDy3iwNsm6dyGHs",
									"type": "string"
								}
							]
						},
						"method": "GET",
						"header": [],
						"url": {
							"raw": "https://felix-bm-kada-task.louisaldorio.site/api/owners/1",
							"protocol": "https",
							"host": [
								"felix-bm-kada-task",
								"louisaldorio",
								"site"
							],
							"path": [
								"api",
								"owners",
								"1"
							]
						}
					},
					"response": []
				},
				{
					"name": "Delete By ID",
					"request": {
						"auth": {
							"type": "bearer",
							"bearer": [
								{
									"key": "token",
									"value": "eyJ0eXAiOiJKV1QiLCJhbGciOiJSUzI1NiJ9.eyJhdWQiOiIxIiwianRpIjoiYzI4NDAwYzdiMTgyZWE4ZjM2YmE2ZTcxZjJjZmRkMjU5NzAzYTM3YzA5OWNmZjdhOWI4MDk5MWYyMWI3YjA3NDJhMTZlZTczNDVjNWY5YjgiLCJpYXQiOjE2NjAwMjY4NjYuNzQwMjA1LCJuYmYiOjE2NjAwMjY4NjYuNzQwMjA4LCJleHAiOjE2OTE1NjI4NjYuNjg1NDYsInN1YiI6IjEiLCJzY29wZXMiOltdfQ.ZusoDrOzB25W0XJ8ycFxxEt1rsTjAvKzXBpIin17fOhs6z2e-ebllsNOFmT7bcsCnaFIPnZ0kiXbe3PHgy4fMonIIWkaEIFCCgjcXdn8fzskMHuF_nktaHCLxS_z6VJkbGfqNOnHM4aszsvCvmcovXWezKY-uy-sRukivRDXS9jOvO9qCZfXabc1dpj4lyZSrWbrsJdgXawkMKE27GfHPaaEjLABWGWvum_-hVlKsAxkTpB-eAErGwG7b0M4tKUEqBSD6WAQmlwiCEYhIdH9ldtMbT3pjwNfqtgJrK-yuZwB6L3cBRm_7CqQQPSWJqd8dbeCTApoM083QguITtkDAxwC03IMluFFFF65emiF-XkeNofSnt1H2O0cG_cnP_Rt5tJs68nV-AaREUZXxlRtOoxJAwsGEiikxyFoEY5dIX8Ksvy1MMOAgT_z5BGu1BCXChJUHWhiRxcG9s5lzLCJVtOxMF-XbTTUiBjOQtyCgWo1IL1Cu1QLhMVAAWEbod2WocEFhRpcaLE7lRhdNkD0HXjxGj-sL1Ue_3VJi5psR9Ro7kj06xkWL5nkKJp5Hrk-p8KiWgyMKjko7dlzKr30DrTWvwbjF6Onr0ipldpT-IHSH7try2MVvanBwYqE_5eAkyGLoKxptYdRkQVbJVoHkYD6prAQZDy3iwNsm6dyGHs",
									"type": "string"
								}
							]
						},
						"method": "DELETE",
						"header": [],
						"url": {
							"raw": "https://felix-bm-kada-task.louisaldorio.site/api/owners/1",
							"protocol": "https",
							"host": [
								"felix-bm-kada-task",
								"louisaldorio",
								"site"
							],
							"path": [
								"api",
								"owners",
								"1"
							]
						}
					},
					"response": []
				}
			]
		},
		{
			"name": "Payment Method",
			"item": [
				{
					"name": "Get All",
					"request": {
						"auth": {
							"type": "bearer",
							"bearer": [
								{
									"key": "token",
									"value": "eyJ0eXAiOiJKV1QiLCJhbGciOiJSUzI1NiJ9.eyJhdWQiOiIxIiwianRpIjoiYzI4NDAwYzdiMTgyZWE4ZjM2YmE2ZTcxZjJjZmRkMjU5NzAzYTM3YzA5OWNmZjdhOWI4MDk5MWYyMWI3YjA3NDJhMTZlZTczNDVjNWY5YjgiLCJpYXQiOjE2NjAwMjY4NjYuNzQwMjA1LCJuYmYiOjE2NjAwMjY4NjYuNzQwMjA4LCJleHAiOjE2OTE1NjI4NjYuNjg1NDYsInN1YiI6IjEiLCJzY29wZXMiOltdfQ.ZusoDrOzB25W0XJ8ycFxxEt1rsTjAvKzXBpIin17fOhs6z2e-ebllsNOFmT7bcsCnaFIPnZ0kiXbe3PHgy4fMonIIWkaEIFCCgjcXdn8fzskMHuF_nktaHCLxS_z6VJkbGfqNOnHM4aszsvCvmcovXWezKY-uy-sRukivRDXS9jOvO9qCZfXabc1dpj4lyZSrWbrsJdgXawkMKE27GfHPaaEjLABWGWvum_-hVlKsAxkTpB-eAErGwG7b0M4tKUEqBSD6WAQmlwiCEYhIdH9ldtMbT3pjwNfqtgJrK-yuZwB6L3cBRm_7CqQQPSWJqd8dbeCTApoM083QguITtkDAxwC03IMluFFFF65emiF-XkeNofSnt1H2O0cG_cnP_Rt5tJs68nV-AaREUZXxlRtOoxJAwsGEiikxyFoEY5dIX8Ksvy1MMOAgT_z5BGu1BCXChJUHWhiRxcG9s5lzLCJVtOxMF-XbTTUiBjOQtyCgWo1IL1Cu1QLhMVAAWEbod2WocEFhRpcaLE7lRhdNkD0HXjxGj-sL1Ue_3VJi5psR9Ro7kj06xkWL5nkKJp5Hrk-p8KiWgyMKjko7dlzKr30DrTWvwbjF6Onr0ipldpT-IHSH7try2MVvanBwYqE_5eAkyGLoKxptYdRkQVbJVoHkYD6prAQZDy3iwNsm6dyGHs",
									"type": "string"
								}
							]
						},
						"method": "GET",
						"header": [],
						"url": {
							"raw": "https://felix-bm-kada-task.louisaldorio.site/api/payment-methods",
							"protocol": "https",
							"host": [
								"felix-bm-kada-task",
								"louisaldorio",
								"site"
							],
							"path": [
								"api",
								"payment-methods"
							]
						}
					},
					"response": []
				},
				{
					"name": "Create",
					"request": {
						"auth": {
							"type": "bearer",
							"bearer": [
								{
									"key": "token",
									"value": "eyJ0eXAiOiJKV1QiLCJhbGciOiJSUzI1NiJ9.eyJhdWQiOiIxIiwianRpIjoiZDhkZGQ3NTY3ZjQ4Nzc5YjVkMTE5ZjE4MTc3YzdkMjBhYjg0YzdlNjg2YzA2ODhjNjI2NWJiZTQwYmFjMzI4ZWZkZmQ5NTljMDUwNWU5MWYiLCJpYXQiOjE2NjAwMzM1MDEuNDQ5ODIyLCJuYmYiOjE2NjAwMzM1MDEuNDQ5ODI0LCJleHAiOjE2OTE1Njk1MDEuNDQzMDY1LCJzdWIiOiIxIiwic2NvcGVzIjpbXX0.Q9uxE8Mm_N6pNYegWsGln4ZYyEEQ6WOGovze1-VKN4rsN_68-1-qp4_QgXh2JqAruAgw3o6IW72HYk7xoAnCFgn0Bo6gKpqH9mj7SwjF6boTZH6_lOaI88ttZPzgfQ3VZDvvNrvsGSIYXWxnwD52r_UXBDYt5jZfx7OyX9cArKY-Vd0VTLjIjCFnLmnvOQr1yls07grKnGd60LuQjUHRxJkxGU7605jPDdrxP69iWM1N50Kv4gC6xHekR04kBjGvqmA_afJ2b1Rbo427JX3Q-64AObvNTmN1H2GJcLrLmefSAzT8SVs9LjXpRDfyATDCsfP5mCBLa9BHJK2id2AK72D0_Cq0t_9v3-nZ4af5nynIW_xqndFZmDKCvQ2NChq8Qv21yrbqHUvcTY6SgCaZ3FKj7kP707YU0cyTcyMNw5sWEG_F7YCjjL6hCzktV7zNapvPuuOzvVB7Zx9lb1eAnDxzv0KMO7YkY3ITYRdgCuOwSVAmiE5K_fkZTEsCSsn_9d2zSCATGv0wx6pLEckzmelOtsH4x0QQUHqa8942_9XlAPDXAOZhfxe110-vYGpTcvpyxO2GTG4JiPpgZqeVki0MvjQsyFwqJ0DxN-qh7fkfxwVtX2glawuJuC2OMMpfgG2gQVQ96I4SfXNpDazwVVq07mHzwO-eXYN4ZavnrQk",
									"type": "string"
								}
							]
						},
						"method": "POST",
						"header": [],
						"body": {
							"mode": "raw",
							"raw": "{\n    \"name\": \"Lulu.id\"\n}",
							"options": {
								"raw": {
									"language": "json"
								}
							}
						},
						"url": {
							"raw": "https://felix-bm-kada-task.louisaldorio.site/api/payment-methods",
							"protocol": "https",
							"host": [
								"felix-bm-kada-task",
								"louisaldorio",
								"site"
							],
							"path": [
								"api",
								"payment-methods"
							]
						}
					},
					"response": []
				},
				{
					"name": "Update By ID",
					"request": {
						"auth": {
							"type": "bearer",
							"bearer": [
								{
									"key": "token",
									"value": "eyJ0eXAiOiJKV1QiLCJhbGciOiJSUzI1NiJ9.eyJhdWQiOiIxIiwianRpIjoiYzI4NDAwYzdiMTgyZWE4ZjM2YmE2ZTcxZjJjZmRkMjU5NzAzYTM3YzA5OWNmZjdhOWI4MDk5MWYyMWI3YjA3NDJhMTZlZTczNDVjNWY5YjgiLCJpYXQiOjE2NjAwMjY4NjYuNzQwMjA1LCJuYmYiOjE2NjAwMjY4NjYuNzQwMjA4LCJleHAiOjE2OTE1NjI4NjYuNjg1NDYsInN1YiI6IjEiLCJzY29wZXMiOltdfQ.ZusoDrOzB25W0XJ8ycFxxEt1rsTjAvKzXBpIin17fOhs6z2e-ebllsNOFmT7bcsCnaFIPnZ0kiXbe3PHgy4fMonIIWkaEIFCCgjcXdn8fzskMHuF_nktaHCLxS_z6VJkbGfqNOnHM4aszsvCvmcovXWezKY-uy-sRukivRDXS9jOvO9qCZfXabc1dpj4lyZSrWbrsJdgXawkMKE27GfHPaaEjLABWGWvum_-hVlKsAxkTpB-eAErGwG7b0M4tKUEqBSD6WAQmlwiCEYhIdH9ldtMbT3pjwNfqtgJrK-yuZwB6L3cBRm_7CqQQPSWJqd8dbeCTApoM083QguITtkDAxwC03IMluFFFF65emiF-XkeNofSnt1H2O0cG_cnP_Rt5tJs68nV-AaREUZXxlRtOoxJAwsGEiikxyFoEY5dIX8Ksvy1MMOAgT_z5BGu1BCXChJUHWhiRxcG9s5lzLCJVtOxMF-XbTTUiBjOQtyCgWo1IL1Cu1QLhMVAAWEbod2WocEFhRpcaLE7lRhdNkD0HXjxGj-sL1Ue_3VJi5psR9Ro7kj06xkWL5nkKJp5Hrk-p8KiWgyMKjko7dlzKr30DrTWvwbjF6Onr0ipldpT-IHSH7try2MVvanBwYqE_5eAkyGLoKxptYdRkQVbJVoHkYD6prAQZDy3iwNsm6dyGHs",
									"type": "string"
								}
							]
						},
						"method": "PUT",
						"header": [],
						"body": {
							"mode": "raw",
							"raw": "{\n    \"name\": \"Lulu id\"\n}",
							"options": {
								"raw": {
									"language": "json"
								}
							}
						},
						"url": {
							"raw": "https://felix-bm-kada-task.louisaldorio.site/api/payment-methods/1",
							"protocol": "https",
							"host": [
								"felix-bm-kada-task",
								"louisaldorio",
								"site"
							],
							"path": [
								"api",
								"payment-methods",
								"1"
							]
						}
					},
					"response": []
				},
				{
					"name": "Get By ID",
					"request": {
						"auth": {
							"type": "bearer",
							"bearer": [
								{
									"key": "token",
									"value": "eyJ0eXAiOiJKV1QiLCJhbGciOiJSUzI1NiJ9.eyJhdWQiOiIxIiwianRpIjoiYzI4NDAwYzdiMTgyZWE4ZjM2YmE2ZTcxZjJjZmRkMjU5NzAzYTM3YzA5OWNmZjdhOWI4MDk5MWYyMWI3YjA3NDJhMTZlZTczNDVjNWY5YjgiLCJpYXQiOjE2NjAwMjY4NjYuNzQwMjA1LCJuYmYiOjE2NjAwMjY4NjYuNzQwMjA4LCJleHAiOjE2OTE1NjI4NjYuNjg1NDYsInN1YiI6IjEiLCJzY29wZXMiOltdfQ.ZusoDrOzB25W0XJ8ycFxxEt1rsTjAvKzXBpIin17fOhs6z2e-ebllsNOFmT7bcsCnaFIPnZ0kiXbe3PHgy4fMonIIWkaEIFCCgjcXdn8fzskMHuF_nktaHCLxS_z6VJkbGfqNOnHM4aszsvCvmcovXWezKY-uy-sRukivRDXS9jOvO9qCZfXabc1dpj4lyZSrWbrsJdgXawkMKE27GfHPaaEjLABWGWvum_-hVlKsAxkTpB-eAErGwG7b0M4tKUEqBSD6WAQmlwiCEYhIdH9ldtMbT3pjwNfqtgJrK-yuZwB6L3cBRm_7CqQQPSWJqd8dbeCTApoM083QguITtkDAxwC03IMluFFFF65emiF-XkeNofSnt1H2O0cG_cnP_Rt5tJs68nV-AaREUZXxlRtOoxJAwsGEiikxyFoEY5dIX8Ksvy1MMOAgT_z5BGu1BCXChJUHWhiRxcG9s5lzLCJVtOxMF-XbTTUiBjOQtyCgWo1IL1Cu1QLhMVAAWEbod2WocEFhRpcaLE7lRhdNkD0HXjxGj-sL1Ue_3VJi5psR9Ro7kj06xkWL5nkKJp5Hrk-p8KiWgyMKjko7dlzKr30DrTWvwbjF6Onr0ipldpT-IHSH7try2MVvanBwYqE_5eAkyGLoKxptYdRkQVbJVoHkYD6prAQZDy3iwNsm6dyGHs",
									"type": "string"
								}
							]
						},
						"method": "GET",
						"header": [],
						"url": {
							"raw": "https://felix-bm-kada-task.louisaldorio.site/api/payment-methods/1",
							"protocol": "https",
							"host": [
								"felix-bm-kada-task",
								"louisaldorio",
								"site"
							],
							"path": [
								"api",
								"payment-methods",
								"1"
							]
						}
					},
					"response": []
				},
				{
					"name": "Delete By ID",
					"request": {
						"auth": {
							"type": "bearer",
							"bearer": [
								{
									"key": "token",
									"value": "eyJ0eXAiOiJKV1QiLCJhbGciOiJSUzI1NiJ9.eyJhdWQiOiIxIiwianRpIjoiYzI4NDAwYzdiMTgyZWE4ZjM2YmE2ZTcxZjJjZmRkMjU5NzAzYTM3YzA5OWNmZjdhOWI4MDk5MWYyMWI3YjA3NDJhMTZlZTczNDVjNWY5YjgiLCJpYXQiOjE2NjAwMjY4NjYuNzQwMjA1LCJuYmYiOjE2NjAwMjY4NjYuNzQwMjA4LCJleHAiOjE2OTE1NjI4NjYuNjg1NDYsInN1YiI6IjEiLCJzY29wZXMiOltdfQ.ZusoDrOzB25W0XJ8ycFxxEt1rsTjAvKzXBpIin17fOhs6z2e-ebllsNOFmT7bcsCnaFIPnZ0kiXbe3PHgy4fMonIIWkaEIFCCgjcXdn8fzskMHuF_nktaHCLxS_z6VJkbGfqNOnHM4aszsvCvmcovXWezKY-uy-sRukivRDXS9jOvO9qCZfXabc1dpj4lyZSrWbrsJdgXawkMKE27GfHPaaEjLABWGWvum_-hVlKsAxkTpB-eAErGwG7b0M4tKUEqBSD6WAQmlwiCEYhIdH9ldtMbT3pjwNfqtgJrK-yuZwB6L3cBRm_7CqQQPSWJqd8dbeCTApoM083QguITtkDAxwC03IMluFFFF65emiF-XkeNofSnt1H2O0cG_cnP_Rt5tJs68nV-AaREUZXxlRtOoxJAwsGEiikxyFoEY5dIX8Ksvy1MMOAgT_z5BGu1BCXChJUHWhiRxcG9s5lzLCJVtOxMF-XbTTUiBjOQtyCgWo1IL1Cu1QLhMVAAWEbod2WocEFhRpcaLE7lRhdNkD0HXjxGj-sL1Ue_3VJi5psR9Ro7kj06xkWL5nkKJp5Hrk-p8KiWgyMKjko7dlzKr30DrTWvwbjF6Onr0ipldpT-IHSH7try2MVvanBwYqE_5eAkyGLoKxptYdRkQVbJVoHkYD6prAQZDy3iwNsm6dyGHs",
									"type": "string"
								}
							]
						},
						"method": "DELETE",
						"header": [],
						"url": {
							"raw": "https://felix-bm-kada-task.louisaldorio.site/api/payment-methods/1",
							"protocol": "https",
							"host": [
								"felix-bm-kada-task",
								"louisaldorio",
								"site"
							],
							"path": [
								"api",
								"payment-methods",
								"1"
							]
						}
					},
					"response": []
				}
			]
		},
		{
			"name": "Outlet",
			"item": [
				{
					"name": "Get All",
					"request": {
						"auth": {
							"type": "bearer",
							"bearer": [
								{
									"key": "token",
									"value": "eyJ0eXAiOiJKV1QiLCJhbGciOiJSUzI1NiJ9.eyJhdWQiOiIxIiwianRpIjoiMzY1YWFiYTA5MzgxMDYyNzM1ZDhhODYxZWI4NDg2YTNjYjMzNzg4MmE2ZDc1ZDA0ODE3MDZhZGU1M2VlZDY5ZmQyMTdiMGM4ZGExZTdhMDUiLCJpYXQiOjE2NjAwMjk0NDYuMjg4NjA4LCJuYmYiOjE2NjAwMjk0NDYuMjg4NjExLCJleHAiOjE2OTE1NjU0NDYuMjgwNjQ2LCJzdWIiOiIxIiwic2NvcGVzIjpbXX0.H6Rpot0btIY1iOMXwkQXLZTfaxkrlUaJMQXPUazzIfK6L7w-eZV_QGjFHrOZk_atY5N3avZUpkW9oJpKF91MHNcUqbkCEcDVh_WUtGuYLLZPlmL2HNp3W6Ot6gbG86O3z6GgDDpkXWQEI0kjl1HJPgV8MxbiAbeMLCJOnYjOI8MkiAGVt6RwgLuhgJbcnU2gwgpuF2FN3nna1teHcOtrjtmpTT4WXqbGTJyZWJBB-OfXxnhZktBJhUVukYLm_aIZr5ePYIslovMV3pKXJIkmfyYFT5AX3B2-kgcMi0ktxyacxqe3j_jQma8dLseFBcbqPDHErPCZF_ALoLo-5iZV1kWWezm0wkrpCbtoPL2SVh_qTA0vv0VezorT_701btL_2LoMqPUvElwhFJgCLn2TrAvyx9WOKf3KqJCynpmUiW4Okw_eXi88GVdLvEyrois5mfBEuQnEQ3iAQJyN1D250qoZeWSuXZbKVkRKJi253H_Dsj8c77Wq9yCjHsZ93aUTalOHAf0YYm3FFrvUjLbDGlLoY9fjX3hPVo3DFL3E2yiqAtHquIEY7fc2UeGEKaXzD6OjeratCCz4SCkAEv1r34Gztjz3X2Qb39Lo7e4y1h1Kff79SKgATj2XMcqympQnYS0bTheAx5n9qaxsgD4Ug_3Mh4xdynOdTkiMQSr_GRw",
									"type": "string"
								}
							]
						},
						"method": "GET",
						"header": [],
						"url": {
							"raw": "https://felix-bm-kada-task.louisaldorio.site/api/outlets",
							"protocol": "https",
							"host": [
								"felix-bm-kada-task",
								"louisaldorio",
								"site"
							],
							"path": [
								"api",
								"outlets"
							]
						}
					},
					"response": []
				},
				{
					"name": "Create",
					"request": {
						"auth": {
							"type": "bearer",
							"bearer": [
								{
									"key": "token",
									"value": "eyJ0eXAiOiJKV1QiLCJhbGciOiJSUzI1NiJ9.eyJhdWQiOiIxIiwianRpIjoiZDhkZGQ3NTY3ZjQ4Nzc5YjVkMTE5ZjE4MTc3YzdkMjBhYjg0YzdlNjg2YzA2ODhjNjI2NWJiZTQwYmFjMzI4ZWZkZmQ5NTljMDUwNWU5MWYiLCJpYXQiOjE2NjAwMzM1MDEuNDQ5ODIyLCJuYmYiOjE2NjAwMzM1MDEuNDQ5ODI0LCJleHAiOjE2OTE1Njk1MDEuNDQzMDY1LCJzdWIiOiIxIiwic2NvcGVzIjpbXX0.Q9uxE8Mm_N6pNYegWsGln4ZYyEEQ6WOGovze1-VKN4rsN_68-1-qp4_QgXh2JqAruAgw3o6IW72HYk7xoAnCFgn0Bo6gKpqH9mj7SwjF6boTZH6_lOaI88ttZPzgfQ3VZDvvNrvsGSIYXWxnwD52r_UXBDYt5jZfx7OyX9cArKY-Vd0VTLjIjCFnLmnvOQr1yls07grKnGd60LuQjUHRxJkxGU7605jPDdrxP69iWM1N50Kv4gC6xHekR04kBjGvqmA_afJ2b1Rbo427JX3Q-64AObvNTmN1H2GJcLrLmefSAzT8SVs9LjXpRDfyATDCsfP5mCBLa9BHJK2id2AK72D0_Cq0t_9v3-nZ4af5nynIW_xqndFZmDKCvQ2NChq8Qv21yrbqHUvcTY6SgCaZ3FKj7kP707YU0cyTcyMNw5sWEG_F7YCjjL6hCzktV7zNapvPuuOzvVB7Zx9lb1eAnDxzv0KMO7YkY3ITYRdgCuOwSVAmiE5K_fkZTEsCSsn_9d2zSCATGv0wx6pLEckzmelOtsH4x0QQUHqa8942_9XlAPDXAOZhfxe110-vYGpTcvpyxO2GTG4JiPpgZqeVki0MvjQsyFwqJ0DxN-qh7fkfxwVtX2glawuJuC2OMMpfgG2gQVQ96I4SfXNpDazwVVq07mHzwO-eXYN4ZavnrQk",
									"type": "string"
								}
							]
						},
						"method": "POST",
						"header": [],
						"body": {
							"mode": "formdata",
							"formdata": [
								{
									"key": "owner_id",
									"value": "1",
									"type": "text"
								},
								{
									"key": "address",
									"value": "Jalan Terserah",
									"type": "text"
								},
								{
									"key": "image",
									"type": "file",
									"src": "/home/felix/Downloads/Felix/Tanda Tangan Felix.jpg"
								}
							],
							"options": {
								"raw": {
									"language": "json"
								}
							}
						},
						"url": {
							"raw": "https://felix-bm-kada-task.louisaldorio.site/api/outlets",
							"protocol": "https",
							"host": [
								"felix-bm-kada-task",
								"louisaldorio",
								"site"
							],
							"path": [
								"api",
								"outlets"
							]
						}
					},
					"response": []
				},
				{
					"name": "Update By ID",
					"request": {
						"auth": {
							"type": "bearer",
							"bearer": [
								{
									"key": "token",
									"value": "eyJ0eXAiOiJKV1QiLCJhbGciOiJSUzI1NiJ9.eyJhdWQiOiIxIiwianRpIjoiMzY1YWFiYTA5MzgxMDYyNzM1ZDhhODYxZWI4NDg2YTNjYjMzNzg4MmE2ZDc1ZDA0ODE3MDZhZGU1M2VlZDY5ZmQyMTdiMGM4ZGExZTdhMDUiLCJpYXQiOjE2NjAwMjk0NDYuMjg4NjA4LCJuYmYiOjE2NjAwMjk0NDYuMjg4NjExLCJleHAiOjE2OTE1NjU0NDYuMjgwNjQ2LCJzdWIiOiIxIiwic2NvcGVzIjpbXX0.H6Rpot0btIY1iOMXwkQXLZTfaxkrlUaJMQXPUazzIfK6L7w-eZV_QGjFHrOZk_atY5N3avZUpkW9oJpKF91MHNcUqbkCEcDVh_WUtGuYLLZPlmL2HNp3W6Ot6gbG86O3z6GgDDpkXWQEI0kjl1HJPgV8MxbiAbeMLCJOnYjOI8MkiAGVt6RwgLuhgJbcnU2gwgpuF2FN3nna1teHcOtrjtmpTT4WXqbGTJyZWJBB-OfXxnhZktBJhUVukYLm_aIZr5ePYIslovMV3pKXJIkmfyYFT5AX3B2-kgcMi0ktxyacxqe3j_jQma8dLseFBcbqPDHErPCZF_ALoLo-5iZV1kWWezm0wkrpCbtoPL2SVh_qTA0vv0VezorT_701btL_2LoMqPUvElwhFJgCLn2TrAvyx9WOKf3KqJCynpmUiW4Okw_eXi88GVdLvEyrois5mfBEuQnEQ3iAQJyN1D250qoZeWSuXZbKVkRKJi253H_Dsj8c77Wq9yCjHsZ93aUTalOHAf0YYm3FFrvUjLbDGlLoY9fjX3hPVo3DFL3E2yiqAtHquIEY7fc2UeGEKaXzD6OjeratCCz4SCkAEv1r34Gztjz3X2Qb39Lo7e4y1h1Kff79SKgATj2XMcqympQnYS0bTheAx5n9qaxsgD4Ug_3Mh4xdynOdTkiMQSr_GRw",
									"type": "string"
								}
							]
						},
						"method": "POST",
						"header": [],
						"body": {
							"mode": "formdata",
							"formdata": [
								{
									"key": "owner_id",
									"value": "1",
									"type": "text"
								},
								{
									"key": "address",
									"value": "Jalan Terserah Saja",
									"type": "text"
								},
								{
									"key": "image",
									"type": "file",
									"src": "/home/felix/Downloads/Felix/Tanda Tangan Felix.jpg"
								}
							],
							"options": {
								"raw": {
									"language": "json"
								}
							}
						},
						"url": {
							"raw": "https://felix-bm-kada-task.louisaldorio.site/api/outlets/5?_method=PUT",
							"protocol": "https",
							"host": [
								"felix-bm-kada-task",
								"louisaldorio",
								"site"
							],
							"path": [
								"api",
								"outlets",
								"5"
							],
							"query": [
								{
									"key": "_method",
									"value": "PUT"
								}
							]
						}
					},
					"response": []
				},
				{
					"name": "Get By ID",
					"request": {
						"auth": {
							"type": "bearer",
							"bearer": [
								{
									"key": "token",
									"value": "eyJ0eXAiOiJKV1QiLCJhbGciOiJSUzI1NiJ9.eyJhdWQiOiIxIiwianRpIjoiMzY1YWFiYTA5MzgxMDYyNzM1ZDhhODYxZWI4NDg2YTNjYjMzNzg4MmE2ZDc1ZDA0ODE3MDZhZGU1M2VlZDY5ZmQyMTdiMGM4ZGExZTdhMDUiLCJpYXQiOjE2NjAwMjk0NDYuMjg4NjA4LCJuYmYiOjE2NjAwMjk0NDYuMjg4NjExLCJleHAiOjE2OTE1NjU0NDYuMjgwNjQ2LCJzdWIiOiIxIiwic2NvcGVzIjpbXX0.H6Rpot0btIY1iOMXwkQXLZTfaxkrlUaJMQXPUazzIfK6L7w-eZV_QGjFHrOZk_atY5N3avZUpkW9oJpKF91MHNcUqbkCEcDVh_WUtGuYLLZPlmL2HNp3W6Ot6gbG86O3z6GgDDpkXWQEI0kjl1HJPgV8MxbiAbeMLCJOnYjOI8MkiAGVt6RwgLuhgJbcnU2gwgpuF2FN3nna1teHcOtrjtmpTT4WXqbGTJyZWJBB-OfXxnhZktBJhUVukYLm_aIZr5ePYIslovMV3pKXJIkmfyYFT5AX3B2-kgcMi0ktxyacxqe3j_jQma8dLseFBcbqPDHErPCZF_ALoLo-5iZV1kWWezm0wkrpCbtoPL2SVh_qTA0vv0VezorT_701btL_2LoMqPUvElwhFJgCLn2TrAvyx9WOKf3KqJCynpmUiW4Okw_eXi88GVdLvEyrois5mfBEuQnEQ3iAQJyN1D250qoZeWSuXZbKVkRKJi253H_Dsj8c77Wq9yCjHsZ93aUTalOHAf0YYm3FFrvUjLbDGlLoY9fjX3hPVo3DFL3E2yiqAtHquIEY7fc2UeGEKaXzD6OjeratCCz4SCkAEv1r34Gztjz3X2Qb39Lo7e4y1h1Kff79SKgATj2XMcqympQnYS0bTheAx5n9qaxsgD4Ug_3Mh4xdynOdTkiMQSr_GRw",
									"type": "string"
								}
							]
						},
						"method": "GET",
						"header": [],
						"url": {
							"raw": "https://felix-bm-kada-task.louisaldorio.site/api/outlets/5",
							"protocol": "https",
							"host": [
								"felix-bm-kada-task",
								"louisaldorio",
								"site"
							],
							"path": [
								"api",
								"outlets",
								"5"
							]
						}
					},
					"response": []
				},
				{
					"name": "Delete By ID",
					"request": {
						"auth": {
							"type": "bearer",
							"bearer": [
								{
									"key": "token",
									"value": "eyJ0eXAiOiJKV1QiLCJhbGciOiJSUzI1NiJ9.eyJhdWQiOiIxIiwianRpIjoiMzY1YWFiYTA5MzgxMDYyNzM1ZDhhODYxZWI4NDg2YTNjYjMzNzg4MmE2ZDc1ZDA0ODE3MDZhZGU1M2VlZDY5ZmQyMTdiMGM4ZGExZTdhMDUiLCJpYXQiOjE2NjAwMjk0NDYuMjg4NjA4LCJuYmYiOjE2NjAwMjk0NDYuMjg4NjExLCJleHAiOjE2OTE1NjU0NDYuMjgwNjQ2LCJzdWIiOiIxIiwic2NvcGVzIjpbXX0.H6Rpot0btIY1iOMXwkQXLZTfaxkrlUaJMQXPUazzIfK6L7w-eZV_QGjFHrOZk_atY5N3avZUpkW9oJpKF91MHNcUqbkCEcDVh_WUtGuYLLZPlmL2HNp3W6Ot6gbG86O3z6GgDDpkXWQEI0kjl1HJPgV8MxbiAbeMLCJOnYjOI8MkiAGVt6RwgLuhgJbcnU2gwgpuF2FN3nna1teHcOtrjtmpTT4WXqbGTJyZWJBB-OfXxnhZktBJhUVukYLm_aIZr5ePYIslovMV3pKXJIkmfyYFT5AX3B2-kgcMi0ktxyacxqe3j_jQma8dLseFBcbqPDHErPCZF_ALoLo-5iZV1kWWezm0wkrpCbtoPL2SVh_qTA0vv0VezorT_701btL_2LoMqPUvElwhFJgCLn2TrAvyx9WOKf3KqJCynpmUiW4Okw_eXi88GVdLvEyrois5mfBEuQnEQ3iAQJyN1D250qoZeWSuXZbKVkRKJi253H_Dsj8c77Wq9yCjHsZ93aUTalOHAf0YYm3FFrvUjLbDGlLoY9fjX3hPVo3DFL3E2yiqAtHquIEY7fc2UeGEKaXzD6OjeratCCz4SCkAEv1r34Gztjz3X2Qb39Lo7e4y1h1Kff79SKgATj2XMcqympQnYS0bTheAx5n9qaxsgD4Ug_3Mh4xdynOdTkiMQSr_GRw",
									"type": "string"
								}
							]
						},
						"method": "DELETE",
						"header": [],
						"url": {
							"raw": "https://felix-bm-kada-task.louisaldorio.site/api/outlets/4",
							"protocol": "https",
							"host": [
								"felix-bm-kada-task",
								"louisaldorio",
								"site"
							],
							"path": [
								"api",
								"outlets",
								"4"
							]
						}
					},
					"response": []
				}
			]
		},
		{
			"name": "Treatment",
			"item": [
				{
					"name": "Get All",
					"request": {
						"auth": {
							"type": "bearer",
							"bearer": [
								{
									"key": "token",
									"value": "eyJ0eXAiOiJKV1QiLCJhbGciOiJSUzI1NiJ9.eyJhdWQiOiIxIiwianRpIjoiZDhkZGQ3NTY3ZjQ4Nzc5YjVkMTE5ZjE4MTc3YzdkMjBhYjg0YzdlNjg2YzA2ODhjNjI2NWJiZTQwYmFjMzI4ZWZkZmQ5NTljMDUwNWU5MWYiLCJpYXQiOjE2NjAwMzM1MDEuNDQ5ODIyLCJuYmYiOjE2NjAwMzM1MDEuNDQ5ODI0LCJleHAiOjE2OTE1Njk1MDEuNDQzMDY1LCJzdWIiOiIxIiwic2NvcGVzIjpbXX0.Q9uxE8Mm_N6pNYegWsGln4ZYyEEQ6WOGovze1-VKN4rsN_68-1-qp4_QgXh2JqAruAgw3o6IW72HYk7xoAnCFgn0Bo6gKpqH9mj7SwjF6boTZH6_lOaI88ttZPzgfQ3VZDvvNrvsGSIYXWxnwD52r_UXBDYt5jZfx7OyX9cArKY-Vd0VTLjIjCFnLmnvOQr1yls07grKnGd60LuQjUHRxJkxGU7605jPDdrxP69iWM1N50Kv4gC6xHekR04kBjGvqmA_afJ2b1Rbo427JX3Q-64AObvNTmN1H2GJcLrLmefSAzT8SVs9LjXpRDfyATDCsfP5mCBLa9BHJK2id2AK72D0_Cq0t_9v3-nZ4af5nynIW_xqndFZmDKCvQ2NChq8Qv21yrbqHUvcTY6SgCaZ3FKj7kP707YU0cyTcyMNw5sWEG_F7YCjjL6hCzktV7zNapvPuuOzvVB7Zx9lb1eAnDxzv0KMO7YkY3ITYRdgCuOwSVAmiE5K_fkZTEsCSsn_9d2zSCATGv0wx6pLEckzmelOtsH4x0QQUHqa8942_9XlAPDXAOZhfxe110-vYGpTcvpyxO2GTG4JiPpgZqeVki0MvjQsyFwqJ0DxN-qh7fkfxwVtX2glawuJuC2OMMpfgG2gQVQ96I4SfXNpDazwVVq07mHzwO-eXYN4ZavnrQk",
									"type": "string"
								}
							]
						},
						"method": "GET",
						"header": [],
						"url": {
							"raw": "https://felix-bm-kada-task.louisaldorio.site/api/treatments",
							"protocol": "https",
							"host": [
								"felix-bm-kada-task",
								"louisaldorio",
								"site"
							],
							"path": [
								"api",
								"treatments"
							]
						}
					},
					"response": []
				},
				{
					"name": "Create",
					"request": {
						"auth": {
							"type": "bearer",
							"bearer": [
								{
									"key": "token",
									"value": "eyJ0eXAiOiJKV1QiLCJhbGciOiJSUzI1NiJ9.eyJhdWQiOiIxIiwianRpIjoiZDhkZGQ3NTY3ZjQ4Nzc5YjVkMTE5ZjE4MTc3YzdkMjBhYjg0YzdlNjg2YzA2ODhjNjI2NWJiZTQwYmFjMzI4ZWZkZmQ5NTljMDUwNWU5MWYiLCJpYXQiOjE2NjAwMzM1MDEuNDQ5ODIyLCJuYmYiOjE2NjAwMzM1MDEuNDQ5ODI0LCJleHAiOjE2OTE1Njk1MDEuNDQzMDY1LCJzdWIiOiIxIiwic2NvcGVzIjpbXX0.Q9uxE8Mm_N6pNYegWsGln4ZYyEEQ6WOGovze1-VKN4rsN_68-1-qp4_QgXh2JqAruAgw3o6IW72HYk7xoAnCFgn0Bo6gKpqH9mj7SwjF6boTZH6_lOaI88ttZPzgfQ3VZDvvNrvsGSIYXWxnwD52r_UXBDYt5jZfx7OyX9cArKY-Vd0VTLjIjCFnLmnvOQr1yls07grKnGd60LuQjUHRxJkxGU7605jPDdrxP69iWM1N50Kv4gC6xHekR04kBjGvqmA_afJ2b1Rbo427JX3Q-64AObvNTmN1H2GJcLrLmefSAzT8SVs9LjXpRDfyATDCsfP5mCBLa9BHJK2id2AK72D0_Cq0t_9v3-nZ4af5nynIW_xqndFZmDKCvQ2NChq8Qv21yrbqHUvcTY6SgCaZ3FKj7kP707YU0cyTcyMNw5sWEG_F7YCjjL6hCzktV7zNapvPuuOzvVB7Zx9lb1eAnDxzv0KMO7YkY3ITYRdgCuOwSVAmiE5K_fkZTEsCSsn_9d2zSCATGv0wx6pLEckzmelOtsH4x0QQUHqa8942_9XlAPDXAOZhfxe110-vYGpTcvpyxO2GTG4JiPpgZqeVki0MvjQsyFwqJ0DxN-qh7fkfxwVtX2glawuJuC2OMMpfgG2gQVQ96I4SfXNpDazwVVq07mHzwO-eXYN4ZavnrQk",
									"type": "string"
								}
							]
						},
						"method": "POST",
						"header": [],
						"body": {
							"mode": "formdata",
							"formdata": [
								{
									"key": "name",
									"value": "Hair Removal 3",
									"type": "text"
								},
								{
									"key": "description",
									"value": "menghilangkan rambut tangan",
									"type": "text"
								},
								{
									"key": "image",
									"type": "file",
									"src": "/home/felix/Downloads/Felix/Tanda Tangan Felix.jpg"
								},
								{
									"key": "price",
									"value": "180000.00",
									"type": "text"
								},
								{
									"key": "outlet_id",
									"value": "1",
									"type": "default"
								}
							],
							"options": {
								"raw": {
									"language": "json"
								}
							}
						},
						"url": {
							"raw": "https://felix-bm-kada-task.louisaldorio.site/api/treatments",
							"protocol": "https",
							"host": [
								"felix-bm-kada-task",
								"louisaldorio",
								"site"
							],
							"path": [
								"api",
								"treatments"
							]
						}
					},
					"response": []
				},
				{
					"name": "Update By ID",
					"request": {
						"auth": {
							"type": "bearer",
							"bearer": [
								{
									"key": "token",
									"value": "eyJ0eXAiOiJKV1QiLCJhbGciOiJSUzI1NiJ9.eyJhdWQiOiIxIiwianRpIjoiZDhkZGQ3NTY3ZjQ4Nzc5YjVkMTE5ZjE4MTc3YzdkMjBhYjg0YzdlNjg2YzA2ODhjNjI2NWJiZTQwYmFjMzI4ZWZkZmQ5NTljMDUwNWU5MWYiLCJpYXQiOjE2NjAwMzM1MDEuNDQ5ODIyLCJuYmYiOjE2NjAwMzM1MDEuNDQ5ODI0LCJleHAiOjE2OTE1Njk1MDEuNDQzMDY1LCJzdWIiOiIxIiwic2NvcGVzIjpbXX0.Q9uxE8Mm_N6pNYegWsGln4ZYyEEQ6WOGovze1-VKN4rsN_68-1-qp4_QgXh2JqAruAgw3o6IW72HYk7xoAnCFgn0Bo6gKpqH9mj7SwjF6boTZH6_lOaI88ttZPzgfQ3VZDvvNrvsGSIYXWxnwD52r_UXBDYt5jZfx7OyX9cArKY-Vd0VTLjIjCFnLmnvOQr1yls07grKnGd60LuQjUHRxJkxGU7605jPDdrxP69iWM1N50Kv4gC6xHekR04kBjGvqmA_afJ2b1Rbo427JX3Q-64AObvNTmN1H2GJcLrLmefSAzT8SVs9LjXpRDfyATDCsfP5mCBLa9BHJK2id2AK72D0_Cq0t_9v3-nZ4af5nynIW_xqndFZmDKCvQ2NChq8Qv21yrbqHUvcTY6SgCaZ3FKj7kP707YU0cyTcyMNw5sWEG_F7YCjjL6hCzktV7zNapvPuuOzvVB7Zx9lb1eAnDxzv0KMO7YkY3ITYRdgCuOwSVAmiE5K_fkZTEsCSsn_9d2zSCATGv0wx6pLEckzmelOtsH4x0QQUHqa8942_9XlAPDXAOZhfxe110-vYGpTcvpyxO2GTG4JiPpgZqeVki0MvjQsyFwqJ0DxN-qh7fkfxwVtX2glawuJuC2OMMpfgG2gQVQ96I4SfXNpDazwVVq07mHzwO-eXYN4ZavnrQk",
									"type": "string"
								}
							]
						},
						"method": "POST",
						"header": [],
						"body": {
							"mode": "formdata",
							"formdata": [
								{
									"key": "name",
									"value": "Hair Removal",
									"type": "text"
								},
								{
									"key": "description",
									"value": "menghilangkan rambut apapun jenisnya",
									"type": "text"
								},
								{
									"key": "image",
									"type": "file",
									"src": "/home/felix/Downloads/Felix/Tanda Tangan Felix.jpg"
								},
								{
									"key": "price",
									"value": "180000.00",
									"type": "default"
								},
								{
									"key": "outlet_id",
									"value": "1",
									"type": "default"
								}
							],
							"options": {
								"raw": {
									"language": "json"
								}
							}
						},
						"url": {
							"raw": "https://felix-bm-kada-task.louisaldorio.site/api/treatments/1?_method=PUT",
							"protocol": "https",
							"host": [
								"felix-bm-kada-task",
								"louisaldorio",
								"site"
							],
							"path": [
								"api",
								"treatments",
								"1"
							],
							"query": [
								{
									"key": "_method",
									"value": "PUT"
								}
							]
						}
					},
					"response": []
				},
				{
					"name": "Get By ID",
					"request": {
						"auth": {
							"type": "bearer",
							"bearer": [
								{
									"key": "token",
									"value": "eyJ0eXAiOiJKV1QiLCJhbGciOiJSUzI1NiJ9.eyJhdWQiOiIxIiwianRpIjoiZDhkZGQ3NTY3ZjQ4Nzc5YjVkMTE5ZjE4MTc3YzdkMjBhYjg0YzdlNjg2YzA2ODhjNjI2NWJiZTQwYmFjMzI4ZWZkZmQ5NTljMDUwNWU5MWYiLCJpYXQiOjE2NjAwMzM1MDEuNDQ5ODIyLCJuYmYiOjE2NjAwMzM1MDEuNDQ5ODI0LCJleHAiOjE2OTE1Njk1MDEuNDQzMDY1LCJzdWIiOiIxIiwic2NvcGVzIjpbXX0.Q9uxE8Mm_N6pNYegWsGln4ZYyEEQ6WOGovze1-VKN4rsN_68-1-qp4_QgXh2JqAruAgw3o6IW72HYk7xoAnCFgn0Bo6gKpqH9mj7SwjF6boTZH6_lOaI88ttZPzgfQ3VZDvvNrvsGSIYXWxnwD52r_UXBDYt5jZfx7OyX9cArKY-Vd0VTLjIjCFnLmnvOQr1yls07grKnGd60LuQjUHRxJkxGU7605jPDdrxP69iWM1N50Kv4gC6xHekR04kBjGvqmA_afJ2b1Rbo427JX3Q-64AObvNTmN1H2GJcLrLmefSAzT8SVs9LjXpRDfyATDCsfP5mCBLa9BHJK2id2AK72D0_Cq0t_9v3-nZ4af5nynIW_xqndFZmDKCvQ2NChq8Qv21yrbqHUvcTY6SgCaZ3FKj7kP707YU0cyTcyMNw5sWEG_F7YCjjL6hCzktV7zNapvPuuOzvVB7Zx9lb1eAnDxzv0KMO7YkY3ITYRdgCuOwSVAmiE5K_fkZTEsCSsn_9d2zSCATGv0wx6pLEckzmelOtsH4x0QQUHqa8942_9XlAPDXAOZhfxe110-vYGpTcvpyxO2GTG4JiPpgZqeVki0MvjQsyFwqJ0DxN-qh7fkfxwVtX2glawuJuC2OMMpfgG2gQVQ96I4SfXNpDazwVVq07mHzwO-eXYN4ZavnrQk",
									"type": "string"
								}
							]
						},
						"method": "GET",
						"header": [],
						"url": {
							"raw": "https://felix-bm-kada-task.louisaldorio.site/api/treatments/1",
							"protocol": "https",
							"host": [
								"felix-bm-kada-task",
								"louisaldorio",
								"site"
							],
							"path": [
								"api",
								"treatments",
								"1"
							]
						}
					},
					"response": []
				},
				{
					"name": "Delete By ID",
					"request": {
						"auth": {
							"type": "bearer",
							"bearer": [
								{
									"key": "token",
									"value": "eyJ0eXAiOiJKV1QiLCJhbGciOiJSUzI1NiJ9.eyJhdWQiOiIxIiwianRpIjoiZDhkZGQ3NTY3ZjQ4Nzc5YjVkMTE5ZjE4MTc3YzdkMjBhYjg0YzdlNjg2YzA2ODhjNjI2NWJiZTQwYmFjMzI4ZWZkZmQ5NTljMDUwNWU5MWYiLCJpYXQiOjE2NjAwMzM1MDEuNDQ5ODIyLCJuYmYiOjE2NjAwMzM1MDEuNDQ5ODI0LCJleHAiOjE2OTE1Njk1MDEuNDQzMDY1LCJzdWIiOiIxIiwic2NvcGVzIjpbXX0.Q9uxE8Mm_N6pNYegWsGln4ZYyEEQ6WOGovze1-VKN4rsN_68-1-qp4_QgXh2JqAruAgw3o6IW72HYk7xoAnCFgn0Bo6gKpqH9mj7SwjF6boTZH6_lOaI88ttZPzgfQ3VZDvvNrvsGSIYXWxnwD52r_UXBDYt5jZfx7OyX9cArKY-Vd0VTLjIjCFnLmnvOQr1yls07grKnGd60LuQjUHRxJkxGU7605jPDdrxP69iWM1N50Kv4gC6xHekR04kBjGvqmA_afJ2b1Rbo427JX3Q-64AObvNTmN1H2GJcLrLmefSAzT8SVs9LjXpRDfyATDCsfP5mCBLa9BHJK2id2AK72D0_Cq0t_9v3-nZ4af5nynIW_xqndFZmDKCvQ2NChq8Qv21yrbqHUvcTY6SgCaZ3FKj7kP707YU0cyTcyMNw5sWEG_F7YCjjL6hCzktV7zNapvPuuOzvVB7Zx9lb1eAnDxzv0KMO7YkY3ITYRdgCuOwSVAmiE5K_fkZTEsCSsn_9d2zSCATGv0wx6pLEckzmelOtsH4x0QQUHqa8942_9XlAPDXAOZhfxe110-vYGpTcvpyxO2GTG4JiPpgZqeVki0MvjQsyFwqJ0DxN-qh7fkfxwVtX2glawuJuC2OMMpfgG2gQVQ96I4SfXNpDazwVVq07mHzwO-eXYN4ZavnrQk",
									"type": "string"
								}
							]
						},
						"method": "DELETE",
						"header": [],
						"url": {
							"raw": "https://felix-bm-kada-task.louisaldorio.site/api/treatments/1",
							"protocol": "https",
							"host": [
								"felix-bm-kada-task",
								"louisaldorio",
								"site"
							],
							"path": [
								"api",
								"treatments",
								"1"
							]
						}
					},
					"response": []
				}
			]
		},
		{
			"name": "Process Cart",
			"request": {
				"auth": {
					"type": "bearer",
					"bearer": [
						{
							"key": "token",
							"value": "eyJ0eXAiOiJKV1QiLCJhbGciOiJSUzI1NiJ9.eyJhdWQiOiIxIiwianRpIjoiOTVkZmZmY2VlNTg2MzQyYjRhMTJiMGU0NzE3NWY1MTA3MGZkY2Q4NjcyZjkxNjNhMDIwNmMwYmFmY2Y1YTA2NWYxNDJiNzg4NGVjZTQ1NWQiLCJpYXQiOjE2NjAwMzY2NjEuMTMzOTcxLCJuYmYiOjE2NjAwMzY2NjEuMTMzOTc0LCJleHAiOjE2OTE1NzI2NjEuMTE1MzMxLCJzdWIiOiIxIiwic2NvcGVzIjpbXX0.FMXwFtPwvstX7v700Ia-5CpKm20itlFFb4pcSP2cdxgtjH2RuBsSVtwck1_PvZCGkqe6YoD7qrmousCMUuNfl9X8H50wbAAXGvzGTr9vmXOeDE4nbqavIwFh7FAgS8uBcLI_zTMUcxGPq6PthFiBxjTAZZuG4r3SYGVIC4NU4zWTScKrKZIpa3xF5GzTZAD3csJjByOE4WbBOa9thKBUrYH8OcNwKBdH17ql-q1IZCNxrLYLANO7qrt8tGvsG44QneJVD4ZXaRwzvXK4ASsEZFOyVqdKd7Rw0ODLrCRvpNAH5o_BSZsLk8PlJ1ShaduELDoU78_NSy6-24uQg_tGSHZDmxDbQuZj4ytjFEojubBeJ26W5IqVr5IasaLSsicNwNPXHPaXHWR7zEMWvZP7EeCSL7IYrmBJn_UmLRFqqx6I6XSCvipQ7y_5ppjuTPJywe0vBUsukdnLiYYORMORKiIQQrjjuIn0YcJxOCVRr8M6dghKfhNaIyX8oZlMFL8lNHbfEhcmiet3HhA65CTn-8yFzJpHQeWRY5d4I5mqW6V49QjmdVEMbUViYdEIuiktwwalv9wi6NIoXa3fmr1ATVwG-3Yexo-EuVkRNNWzKx1erGdvfHhnRI8Es57cQYjUY6MBFWXgWGpsuY6bwJUQTefOF8iDChVU7OAgEGYGbnM",
							"type": "string"
						}
					]
				},
				"method": "POST",
				"header": [],
				"body": {
					"mode": "raw",
					"raw": "{\n    \"treatment_ids\": [2, 3]\n}",
					"options": {
						"raw": {
							"language": "json"
						}
					}
				},
				"url": {
					"raw": "https://felix-bm-kada-task.louisaldorio.site/api/process-cart",
					"protocol": "https",
					"host": [
						"felix-bm-kada-task",
						"louisaldorio",
						"site"
					],
					"path": [
						"api",
						"process-cart"
					]
				}
			},
			"response": []
		}
	]
}